Sex,WeightClassKg,Name,AgeClass,Team,BodyweightKg,Best3SquatKg,Best3BenchKg,Best3DeadliftKg,TotalKg,Place,Event,Division,Equipment
F,67.5,Stephanie Owens,0-19.5,NW,65.5,125,65,125,315,1,SBD,F-E-Open,Single-ply
M,82.5,Tom Martin,0-22.5,NW,81.3,265,157.5,305,727.5,1,SBD,M-E-Open,Single-ply
M,82.5,Stephen Turner,39.5-48.5,NW,77.7,185,,175,,DQ,SBD,M-E-Open,Single-ply
M,90,Aaron Lohan,0-22.5,NW,90,235,200,205,640,2,SBD,M-E-Open,Single-ply
M,90,Ian Richard Austin Shaw,0-22.5,NW,88.7,250,155,300,705,1,SBD,M-E-Open,Single-ply
M,110,Steven Bright,0-22.5,WM,106.7,350,220,257.5,827.5,G,SBD,M-E-Guest,Single-ply
M,110,Wayne Catterall,39.5-48.5,NW,105.9,272.5,205,225,702.5,1,SBD,M-E-Open,Single-ply
M,125,Mark Taylor,39.5-48.5,NW,116,255,207.5,280,742.5,1,SBD,M-E-Open,Single-ply
M,125+,Peter Ratcliffe,49.5-58.5,NW,133.4,280,177.5,275,732.5,1,SBD,M-E-Open,Single-ply
