Place,Name,BirthYear,Country,BodyweightKg,Squat1Kg,Squat2Kg,Squat3Kg,Best3SquatKg,Bench1Kg,Bench2Kg,Bench3Kg,Best3BenchKg,Deadlift1Kg,Deadlift2Kg,Deadlift3Kg,Best3DeadliftKg,TotalKg,WeightClassKg,Division,Event,Sex,Equipment
1,Sergey Fedosienko,1982,RUS,51.56,230,245,260,260,-155,155,165,165,225,240,-247.5,240,665,52,Open,SBD,M,Single-ply
2,Patrick Constantine,1969,GBR,51.76,185,200,205,205,100,105,110,110,205,220,230,230,545,52,Open,SBD,M,Single-ply
3,Yuan-Chi Yu,1973,TPE,51.7,160,190,-200,190,-95,95,102.5,102.5,185,-205,-205,185,477.5,52,Open,SBD,M,Single-ply
DQ,Puraxil Suresh,1975,IND,51.96,-210,-210,-210,,-135,,,,-200,,,,,52,Open,SBD,M,Single-ply
1,Konstantin Pavlov,1973,RUS,55.96,240,250,-255,250,170,180,185,185,210,-220,220,220,655,56,Open,SBD,M,Single-ply
2,Shih-Wu Lu,1975,TPE,54.9,230,-240,240,240,115,120,125,125,235,245,252.5,252.5,617.5,56,Open,SBD,M,Single-ply
3,Hiroyuki Isagawa,1953,JPN,55.92,197.5,207.5,-212.5,207.5,-175,-175,175,175,210,222.5,-230,222.5,605,56,Open,SBD,M,Single-ply
4,Slawomir Sledz,1976,POL,55.96,210,230,-235,230,145,152.5,160,160,205,-217.5,-217.5,205,595,56,Open,SBD,M,Single-ply
5,Dariusz Wszoła,1978,POL,55.84,210,220,-230,220,140,145,147.5,147.5,185,-195,195,195,562.5,56,Open,SBD,M,Single-ply
6,Ervin Gainer Sr,1966,USA,52.24,-160,170,185,185,125,137.5,142.5,142.5,207.5,225,-232.5,225,552.5,56,Open,SBD,M,Single-ply
7,Tomoyuki Kondo,1978,JPN,55.58,200,210,-212.5,210,147.5,155,-160,155,170,-185,-185,170,535,56,Open,SBD,M,Single-ply
8,Thomas Wulffeld,1969,SWE,55.86,-175,175,190,190,-100,-100,100,100,195,215,222.5,222.5,512.5,56,Open,SBD,M,Single-ply
9,Chun-Hsiung Hu,1974,TPE,55.46,230,240,-245,240,25,-100,,25,235,-245,-252.5,235,500,56,Open,SBD,M,Single-ply
10,Karl Christians,1963,RSA,55.58,150,-162.5,162.5,162.5,-90,90,-95,90,190,202.5,-207.5,202.5,455,56,Open,SBD,M,Single-ply
DQ,P.J. Shoby,1974,IND,55.44,-220,-220,-220,,-127.5,,,,-210,,,,,56,Open,SBD,M,Single-ply
DQ,Maik Tronke,1976,GER,55.84,-220,-220,-220,,-125,,,,-150,,,,,56,Open,SBD,M,Single-ply
1,Ravil Kazakov,1982,RUS,59.7,285,295,300,300,190,200,207.5,207.5,210,225,232.5,232.5,740,60,Open,SBD,M,Single-ply
2,Darimin Bin Sutrisno,1975,INA,59.45,260,280,-290,280,160,175,180,180,245,260,272.5,272.5,732.5,60,Open,SBD,M,Single-ply
3,Tsung-Ting Hsieh,1982,TPE,59.2,245,260,270,270,170,177.5,180,180,260,272.5,-290,272.5,722.5,60,Open,SBD,M,Single-ply
4,Caleb Williams,1984,USA,59.6,-262.5,262.5,-270,262.5,-147.5,-147.5,147.5,147.5,227.5,240,-247.5,240,650,60,Open,SBD,M,Single-ply
5,Konstantin Bahtcevanov,1977,BUL,59.8,225,-235,-235,225,150,155,160,160,230,240,245,245,630,60,Open,SBD,M,Single-ply
6,Chung-Liang Chiu,1974,TPE,59.3,205,220,,220,-132.5,132.5,,132.5,250,260,-272.5,260,612.5,60,Open,SBD,M,Single-ply
7,Nisse Forsman,1977,SWE,59.44,210,220,225,225,152.5,157.5,-162.5,157.5,210,215,-217.5,215,597.5,60,Open,SBD,M,Single-ply
8,Etienne Lited,1979,FRA,57.3,-210,-210,210,210,115,-120,120,120,215,220,-230,220,550,60,Open,SBD,M,Single-ply
9,Morten Rasmussen,1978,DEN,59.8,185,-200,-200,185,-130,-130,130,130,175,-185,-185,175,490,60,Open,SBD,M,Single-ply
1,Jarosław Olech,1974,POL,67.5,315,335,340,340,175,185,190,190,292.5,302.5,-310,302.5,832.5,67.5,Open,SBD,M,Single-ply
2,Lung-Hsin Huang,1981,TPE,67.5,240,260,-270,260,180,195,202.5,202.5,280,292.5,-305,292.5,755,67.5,Open,SBD,M,Single-ply
3,Amit Selberg,1976,SWE,67,260,277.5,-285,277.5,180,187.5,192.5,192.5,230,245,-252.5,245,715,67.5,Open,SBD,M,Single-ply
4,Phillip Richard,1971,GBR,67.2,270,-285,285,285,-170,170,175,175,230,-240,-240,230,690,67.5,Open,SBD,M,Single-ply
5,Hassan El Belghiti,1975,FRA,67.5,252.5,-260,-260,252.5,145,150,-152.5,150,250,280,-290,280,682.5,67.5,Open,SBD,M,Single-ply
6,Ahmed Fayyaz,1976,IND,65.4,-260,-260,260,260,150,160,170,170,250,-255,,250,680,67.5,Open,SBD,M,Single-ply
7,Greg Simmons,1965,USA,67.5,237.5,247.5,252.5,252.5,150,160,-165,160,230,240,245,245,657.5,67.5,Open,SBD,M,Single-ply
8,Eric Oishi,1979,BRA,66.1,220,235,-242.5,235,150,-157.5,-157.5,150,235,245,-252.5,245,630,67.5,Open,SBD,M,Single-ply
9,Lewis Noppers,1970,CAN,67.2,210,-227.5,-227.5,210,137.5,145,152.5,152.5,240,260,-265,260,622.5,67.5,Open,SBD,M,Single-ply
10,Karel Ruso,1965,CZE,67.2,230,240,245,245,110,115,117.5,117.5,220,232.5,-240,232.5,595,67.5,Open,SBD,M,Single-ply
11,Jean-Sébastien Rhéaume,1974,CAN,67,190,202.5,210,210,147.5,155,157.5,157.5,200,215,-227.5,215,582.5,67.5,Open,SBD,M,Single-ply
12,Yi-Hsin Kuan,1982,TPE,60.2,125,175,,175,90,-100,-100,90,125,200,-210,200,465,67.5,Open,SBD,M,Single-ply
DQ,Pawel Pracownik,1973,POL,67.4,-235,235,-240,235,-200,-200,-200,,-260,,,,,67.5,Open,SBD,M,Single-ply
DQ,Conan Ries,1970,RSA,67.5,-220,-220,-220,,-140,,,,-200,,,,,67.5,Open,SBD,M,Single-ply
1,Wade Hooper,1971,USA,74.92,315,327.5,335,335,215,225,230,230,255,270,-280,270,835,75,Open,SBD,M,Single-ply
2,Dmitriy Dvornikov,1982,RUS,74.82,305,317.5,-322.5,317.5,200,-210,-210,200,287.5,302.5,-317.5,302.5,820,75,Open,SBD,M,Single-ply
3,Jacek Spychala,1978,POL,74.76,290,300,-307.5,300,180,-185,185,185,280,290,-295,290,775,75,Open,SBD,M,Single-ply
4,Robert Michailov,1977,BUL,74.38,260,-277.5,-280,260,175,185,195,195,290,305,312.5,312.5,767.5,75,Open,SBD,M,Single-ply
5,Peter Vateha,1981,SVK,74.42,260,275,-290,275,170,180,187.5,187.5,260,280,292.5,292.5,755,75,Open,SBD,M,Single-ply
6,Yusuke Fukuda,1975,JPN,72.7,260,275,285,285,160,170,-175,170,-260,260,-280,260,715,75,Open,SBD,M,Single-ply
7,Richie Rosales Enrique,1976,PHI,74.64,200,-230,230,230,175,192.5,-197.5,192.5,190,237.5,245,245,667.5,75,Open,SBD,M,Single-ply
8,Jayabalan Pardeep,1981,IND,74.14,220,235,,235,120,130,,130,250,292.5,-310,292.5,657.5,75,Open,SBD,M,Single-ply
9,Sean Muir,1970,AUS,74.28,227.5,-240,240,240,150,-157.5,157.5,157.5,240,252.5,260,260,657.5,75,Open,SBD,M,Single-ply
10,Chih-Lun Su,1984,TPE,67.6,180,215,235,235,-155,155,-170,155,250,265,-270,265,655,75,Open,SBD,M,Single-ply
11,Neville Harris,1977,AUS,74.64,225,235,-240,235,160,-167.5,-167.5,160,240,250,257.5,257.5,652.5,75,Open,SBD,M,Single-ply
12,Walter Schmidt,1958,RSA,74.24,-220,220,-230,220,155,-160,-165,155,260,270,-277.5,270,645,75,Open,SBD,M,Single-ply
13,Brent McCormack,1976,NZL,74.88,200,220,-240,220,155,165,-170,165,210,-215,-220,210,595,75,Open,SBD,M,Single-ply
14,Ming-Hui Lin,1983,TPE,67.6,-200,200,220,220,130,-135,,130,200,210,220,220,570,75,Open,SBD,M,Single-ply
DQ,Oleksandr Borysov,1980,UKR,74.72,290,-312.5,317.5,317.5,180,185,190,190,295,307.5,-312.5,307.5,,75,Open,SBD,M,Single-ply
1,Viktor Furazhkin,1969,RUS,79.04,325,-340,-340,325,215,225,232.5,232.5,310,-317.5,-317.5,310,867.5,82.5,Open,SBD,M,Single-ply
2,Jan Wegiera,1965,POL,81.7,310,320,-330,320,242.5,250,-255,250,270,290,-300,290,860,82.5,Open,SBD,M,Single-ply
3,Marcel Lindholm,1982,FIN,81.82,300,-315,315,315,175,-180,-180,175,290,-300,-300,290,780,82.5,Open,SBD,M,Single-ply
4,Dawid Randall Andries,1975,RSA,81.54,-280,280,-300,280,165,180,-195,180,280,295,-300,295,755,82.5,Open,SBD,M,Single-ply
5,Dean van Wyk,1977,RSA,81.18,240,-260,260,260,150,-160,-160,150,270,-290,-290,270,680,82.5,Open,SBD,M,Single-ply
6,Erik Rasmussen,1962,DEN,81.16,240,252.5,-262.5,252.5,175,182.5,-190,182.5,225,235,-242.5,235,670,82.5,Open,SBD,M,Single-ply
7,Vraig Mcmilan,1969,NZL,82,-235,-235,235,235,145,155,-165,155,232.5,252.5,260,260,650,82.5,Open,SBD,M,Single-ply
8,Stephen King,1962,NZL,82.04,220,240,250,250,125,135,140,140,225,245,-262.5,245,635,82.5,Open,SBD,M,Single-ply
9,Chia-Hao Kuo,1981,TPE,82,250,-270,-270,250,100,-160,-170,100,260,-275,,260,610,82.5,Open,SBD,M,Single-ply
10,Jeevan Singh,1968,IND,79.28,230,,,230,130,,,130,200,,,200,560,82.5,Open,SBD,M,Single-ply
11,Favio Pardo,1968,ARG,81.08,-190,190,-210,190,125,135,140,140,210,230,-245,230,560,82.5,Open,SBD,M,Single-ply
DQ,Wataru Kobayakawa,1975,JPN,82,290,-300,300,300,200,210,-217.5,210,-260,-260,-260,,,82.5,Open,SBD,M,Single-ply
DQ,Sergiy Naleykin,1981,UKR,82.38,335,350,360,360,-220,-220,-220,,-305,,,,,82.5,Open,SBD,M,Single-ply
DQ,Oleksandr Kutcher,1980,UKR,81.38,330,340,-345,340,210,220,-227.5,220,315,320,330,330,,82.5,Open,SBD,M,Single-ply
1,Andrey Tarasenko,1975,RUS,89.66,340,355,362.5,362.5,240,255,262.5,262.5,315,335,347.5,347.5,972.5,90,Open,SBD,M,Single-ply
2,Aleksey Zvarykin,1979,RUS,89.56,350,360,-370,360,-210,210,215,215,320,330,-340,330,905,90,Open,SBD,M,Single-ply
3,Michał Wilk,1981,POL,89.32,340,-355,355,355,225,235,-240,235,300,-312.5,-315,300,890,90,Open,SBD,M,Single-ply
4,Patrik Turesson,1974,SWE,89.22,320,-332.5,-337.5,320,195,202.5,207.5,207.5,300,312.5,-315,312.5,840,90,Open,SBD,M,Single-ply
5,Petrus Erasmus,1970,RSA,89.02,270,-300,300,300,220,230,240,240,260,272.5,280,280,820,90,Open,SBD,M,Single-ply
6,Alexander Nikolov,1979,BUL,89.16,300,-310,-310,300,200,210,215,215,280,300,-310,300,815,90,Open,SBD,M,Single-ply
7,Pjotr van den Hoek,1972,NED,89.7,285,-300,305,305,200,210,-215,210,285,297.5,-305,297.5,812.5,90,Open,SBD,M,Single-ply
8,Marco Sura,1978,GER,87.88,305,320,325,325,180,190,195,195,270,290,-300,290,810,90,Open,SBD,M,Single-ply
9,Yoji Odagawa,1965,JPN,89.5,-300,300,310,310,-180,180,195,195,280,-300,300,300,805,90,Open,SBD,M,Single-ply
10,Pavol Varchola,1978,SVK,89.46,285,295,-300,295,-200,-200,200,200,290,-310,-310,290,785,90,Open,SBD,M,Single-ply
11,Takayuki Arakawa,1978,JPN,88.74,250,270,277.5,277.5,-100,160,170,170,270,-300,-300,270,717.5,90,Open,SBD,M,Single-ply
12,Augustin Reibel,1976,ARG,89.18,250,-270,270,270,185,-200,-200,185,250,-265,-275,250,705,90,Open,SBD,M,Single-ply
13,Achilles Kelopouris,1975,AUS,86.56,255,-270,270,270,150,-155,-155,150,240,-252.5,-252.5,240,660,90,Open,SBD,M,Single-ply
14,Alexander Kirketeig,1979,NOR,89.9,310,320,-325,320,190,195,-200,195,100,,,100,615,90,Open,SBD,M,Single-ply
DQ,Ivan Shlyakhta,1982,UKR,88.06,350,365,375.5,375.5,220,232.5,242.5,242.5,340,352.5,355,355,,90,Open,SBD,M,Single-ply
1,Ivan Freydun,1981,UKR,98.78,350,365,372.5,372.5,270,280,287.5,287.5,340,355,362.5,362.5,1022.5,100,Open,SBD,M,Single-ply
2,Maxim Barkhatov,1981,RUS,99.64,360,372.5,-380,372.5,250,262.5,270,270,350,370,-382.5,370,1012.5,100,Open,SBD,M,Single-ply
3,Char Gahagen,1976,USA,99.62,310,330,342.5,342.5,202.5,215,222.5,222.5,330,350,-355,350,915,100,Open,SBD,M,Single-ply
4,Jarmo Sohlman,1969,FIN,99.8,300,315,322.5,322.5,-255,-255,255,255,315,335,-345,335,912.5,100,Open,SBD,M,Single-ply
5,Petr Theuser,1961,CZE,95.22,340,350,362.5,362.5,215,222.5,227.5,227.5,300,310,-325,310,900,100,Open,SBD,M,Single-ply
6,Nick Tylutki,1978,USA,99.32,330,350,-362.5,350,200,210,-215,210,310,-332.5,-342.5,310,870,100,Open,SBD,M,Single-ply
7,Bas Roessen,1980,NED,97.04,315,-330,330,330,185,195,-200,195,285,295,305,305,830,100,Open,SBD,M,Single-ply
8,László Kupcsik,1968,HUN,98.66,-250,250,,250,277.5,-282.5,-282.5,277.5,250,,,250,777.5,100,Open,SBD,M,Single-ply
9,Gabor Schulteisz,1976,HUN,99.12,245,265,-275,265,192.5,202.5,-210,202.5,305,-317.5,,305,772.5,100,Open,SBD,M,Single-ply
10,S Nagrajan,1977,IND,99.14,-250,250,260,260,140,150,155,155,250,270,280,280,695,100,Open,SBD,M,Single-ply
11,Brendan O'Shea,1981,RSA,93.1,250,270,-285,270,165,-172.5,172.5,172.5,250,-270,,250,692.5,100,Open,SBD,M,Single-ply
12,Olício dos Santos Filho,1944,BRA,92.14,185,200,-220,200,135,142.5,150,150,265,282.5,-305,282.5,632.5,100,Open,SBD,M,Single-ply
13,Edgard Cardozo,1962,BRA,92.56,180,-200,200,200,125,135,-140,135,190,-205,205,205,540,100,Open,SBD,M,Single-ply
1,Nikolay Suslov,1979,RUS,109.44,375,395,-405,395,260,272.5,277.5,277.5,340,352.5,360,360,1032.5,110,Open,SBD,M,Single-ply
2,Yuriy Fedorenko,1974,RUS,108,365,380,-390,380,245,-255,-255,245,365,375,-380,375,1000,110,Open,SBD,M,Single-ply
3,Roman Voroshylin,1983,UKR,109.2,350,362.5,370,370,227.5,237.5,242.5,242.5,350,372.5,-390,372.5,985,110,Open,SBD,M,Single-ply
4,Tony Harris,1964,USA,108.32,335,355,365,365,215,227.5,232.5,232.5,327.5,347.5,-352.5,347.5,945,110,Open,SBD,M,Single-ply
5,Tor-Herman Omland,1977,NOR,106.98,350,-360,-360,350,235,-240,240,240,307.5,315,320,320,910,110,Open,SBD,M,Single-ply
6,Hannu Kopola,1978,FIN,109.92,335,345,-347.5,345,-217.5,-217.5,217.5,217.5,335,342.5,-350,342.5,905,110,Open,SBD,M,Single-ply
7,Tollef Taksdal,1975,NOR,109.68,320,330,337.5,337.5,-250,250,-260,250,300,307.5,312.5,312.5,900,110,Open,SBD,M,Single-ply
8,Csaba Czégény,1974,HUN,108.76,310,320,-330,320,245,-262.5,-265,245,315,-325,-325,315,880,110,Open,SBD,M,Single-ply
9,Daniel Flaminio,1978,GER,109.26,330,345,355,355,220,230,235,235,280,-295,-295,280,870,110,Open,SBD,M,Single-ply
10,Stefan Huldén,1966,SWE,109.58,-320,320,-330,320,217.5,222.5,-227.5,222.5,310,320,-327.5,320,862.5,110,Open,SBD,M,Single-ply
11,Zbyněk Krejča,1974,CZE,109.86,290,310,315,315,252.5,-255,255,255,280,-290,290,290,860,110,Open,SBD,M,Single-ply
12,Matthew Cosmo,1971,RSA,108.92,280,310,-325,310,225,235,240,240,-260,-260,260,260,810,110,Open,SBD,M,Single-ply
13,Jack James,1971,GBR,109.42,285,-305,310,310,200,210,220,220,-280,280,-282.5,280,810,110,Open,SBD,M,Single-ply
14,Shigeki Minami,1965,JPN,109.4,280,290,-300,290,255,265,-270,265,230,240,245,245,800,110,Open,SBD,M,Single-ply
15,Zsolt Molnár,1979,HUN,105.62,260,275,-282.5,275,185,195,-200,195,275,300,305,305,775,110,Open,SBD,M,Single-ply
16,Abdul Munaf,1974,IND,109.14,250,320,-360,320,150,165,175,175,240,260,275,275,770,110,Open,SBD,M,Single-ply
17,P. Rajender Rao,1971,IND,103.42,260,,,260,160,,,160,260,270,280,280,700,110,Open,SBD,M,Single-ply
DQ,Kristoffer Willebrandt,1975,SWE,109.1,-320,-320,-320,,-210,,,,-310,,,,,110,Open,SBD,M,Single-ply
DQ,Harri Heinilä,1975,FIN,109.18,-360,-360,-360,,-240,,,,-330,,,,,110,Open,SBD,M,Single-ply
DQ,Derek Pomana,1966,NZL,109.54,-360,-360,,,-240,,,,-340,,,,,110,Open,SBD,M,Single-ply
DQ,Stephan Vorup,1973,DEN,109.84,-330,-330,-362.5,,-130,,,,-290,,,,,110,Open,SBD,M,Single-ply
1,Istvan Arvai,1972,HUN,123.32,385,-405,410,410,265,275,-285,275,380,397.5,-400,397.5,1082.5,125,Open,SBD,M,Single-ply
2,Vitaliy Papazov,1980,UKR,120.36,400,415,-420,415,275,285,290,290,360,-375,-377.5,360,1065,125,Open,SBD,M,Single-ply
3,Yevgen Yarymbash,1983,UKR,122.44,375,390,405,405,285,-295,295,295,320,335,342.5,342.5,1042.5,125,Open,SBD,M,Single-ply
4,Jörgen Ljungberg,1967,SWE,124.86,-400,-400,400,400,-252.5,252.5,-265,252.5,350,370,-392.5,370,1022.5,125,Open,SBD,M,Single-ply
5,Clive Henry,1966,GBR,123.42,405,-425,-425,405,-250,250,260,260,315,327.5,-335,327.5,992.5,125,Open,SBD,M,Single-ply
6,Tony Cardella,1977,USA,123.78,360,375,-380,375,260,275,282.5,282.5,327.5,-347.5,-347.5,327.5,985,125,Open,SBD,M,Single-ply
7,Frode Rui,1969,NOR,124.3,345,362.5,370,370,235,245,-252.5,245,340,355,365,365,980,125,Open,SBD,M,Single-ply
8,Dean Bowring,1974,GBR,124.24,330,-340,340,340,265,-275,275,275,290,305,310,310,925,125,Open,SBD,M,Single-ply
9,Olof Wiklund,1978,SWE,124.06,-340,340,355,355,207.5,215,-220,215,315,-335,-335,315,885,125,Open,SBD,M,Single-ply
10,Morten Sørig,1969,DEN,123.96,-335,335,-340,335,220,-230,230,230,-290,290,-320,290,855,125,Open,SBD,M,Single-ply
DQ,Mathias Schroder,1976,GER,117.18,310,325,335,335,-250,-257.5,-257.5,,-310,,,,,125,Open,SBD,M,Single-ply
DQ,Marc V.D. Haer,1979,RSA,117.78,-305,-305,-305,,-230,,,,-305,,,,,125,Open,SBD,M,Single-ply
1,Brian Siders,1978,USA,154.42,420,437.5,-458,437.5,323,337.5,-360,337.5,352.5,372.5,-375,372.5,1147.5,125+,Open,SBD,M,Single-ply
2,Volodymyr Muravlyov,1975,UKR,125.28,385,-397.5,-397.5,385,270,280,290,290,300,355,365,365,1040,125+,Open,SBD,M,Single-ply
3,Zdeněk Sedmík,1974,CZE,149,375,390,-400,390,280,290,-300,290,350,360,-370,360,1040,125+,Open,SBD,M,Single-ply
4,Brad Gillingham,1966,USA,148.82,372.5,385,-397.5,385,267.5,275,-280,275,350,372.5,-382.5,372.5,1032.5,125+,Open,SBD,M,Single-ply
5,Tibor Mészáros,1967,HUN,144.9,-370,370,390,390,220,240,-250,240,380,400,-410,400,1030,125+,Open,SBD,M,Single-ply
6,Joern Hoeyset,1979,NOR,129.6,350,370,380,380,240,250,255,255,340,350,-355,350,985,125+,Open,SBD,M,Single-ply
7,Kenneth Sandvik,1975,FIN,149.86,375,385,-392.5,385,-310,310,-315,310,-290,-290,290,290,985,125+,Open,SBD,M,Single-ply
8,Andrew Thompson,1976,GBR,166.16,-375,375,-395,375,270,-280,280,280,330,-345,-345,330,985,125+,Open,SBD,M,Single-ply
9,Arno Lamprecht,1970,RSA,171.12,-350,-350,390,390,180,245,-255,245,280,300,315,315,950,125+,Open,SBD,M,Single-ply
10,Fredrik Svensson,1979,SWE,148.46,-325,325,340,340,-290,-290,290,290,305,-317.5,-320,305,935,125+,Open,SBD,M,Single-ply
11,Francois Naude,1966,RSA,151.32,350,370,-380,370,200,212.5,222.5,222.5,280,295,307.5,307.5,900,125+,Open,SBD,M,Single-ply
DQ,Niels Stærkjær,1966,DEN,169,290,-360,-360,290,-310,-315,-317.5,,-240,,,,,125+,Open,SBD,M,Single-ply
DQ,Adam Pinkard,1980,AUS,173,-360,-360,-360,,-210,,,,-315,,,,,125+,Open,SBD,M,Single-ply
DQ,Kenneth Tallqvist,1979,FIN,164.26,-400,410,-420,410,280,290,-295,290,340,350,355,355,,125+,Open,SBD,M,Single-ply
