Place,Name,BirthYear,Country,BodyweightKg,Bench1Kg,Bench2Kg,Bench3Kg,Best3BenchKg,TotalKg,WeightClassKg,Division,Event,Sex,Equipment
1,Slawomir Sledz,1976,POL,58.73,165,-180,-180,165,165,59,Masters 1,B,M,Single-ply
1,Mickael Bernard,1970,FRA,64.89,197.5,-202.5,-202.5,197.5,197.5,66,Masters 1,B,M,Single-ply
1,Henrikki Syrjälä,1971,FIN,73.7,210,215,-231.5,215,215,74,Masters 1,B,M,Single-ply
2,Bartosz Zelazko,1973,POL,73.48,192.5,-210,-215,192.5,192.5,74,Masters 1,B,M,Single-ply
3,Rafal Szendera,1971,POL,72.73,180,-187.5,-192.5,180,180,74,Masters 1,B,M,Single-ply
1,Cyril Pinguet,1972,FRA,82.21,-225,225,-242.5,225,225,83,Masters 1,B,M,Single-ply
2,Fabrice Bertin,1967,FRA,82.95,210,220,-227.5,220,220,83,Masters 1,B,M,Single-ply
3,Lukasz Glowacz,1976,POL,81.85,-160,160,-165,160,160,83,Masters 1,B,M,Single-ply
1,Grzegorz Nocek,1973,POL,91.27,-262.5,262.5,-280,262.5,262.5,93,Masters 1,B,M,Single-ply
2,Szabolcs Könye,1974,HUN,91.99,245,250,255,255,255,93,Masters 1,B,M,Single-ply
3,Thomas Wetzstein,1974,AUT,92.63,255,-260,-260,255,255,93,Masters 1,B,M,Single-ply
4,Michel Marneur,1968,FRA,91.32,240,-245,-250,240,240,93,Masters 1,B,M,Single-ply
5,Olaf Brandl,1969,GER,91.5,230,237.5,-250,237.5,237.5,93,Masters 1,B,M,Single-ply
6,Petteri Laurikainen,1969,FIN,91.8,225,235,-250,235,235,93,Masters 1,B,M,Single-ply
1,Khaled Ghazal,1972,CZE,104.29,267.5,280,288,288,288,105,Masters 1,B,M,Single-ply
2,Martin Green,1974,GBR,104.6,250,-255,-262.5,250,250,105,Masters 1,B,M,Single-ply
3,Sven Stecklina,1974,GER,101,-240,242.5,-250,242.5,242.5,105,Masters 1,B,M,Single-ply
4,Joakim Lakso,1975,SWE,104.13,227.5,-240,240,240,240,105,Masters 1,B,M,Single-ply
5,Thomas Kraemer,1970,GER,103.49,-215,215,235,235,235,105,Masters 1,B,M,Single-ply
6,Tony Rabineau,1973,FRA,100.48,230,-240,-242.5,230,230,105,Masters 1,B,M,Single-ply
7,Arild Kraakenes,1968,NOR,104.28,220,-242.5,-245,220,220,105,Masters 1,B,M,Single-ply
DQ,Laszlo Kovacs,1974,HUN,104.93,-240,-240,-240,,,105,Masters 1,B,M,Single-ply
1,Olav Kompelien,1972,NOR,118.55,-302.5,-302.5,307.5,307.5,307.5,120,Masters 1,B,M,Single-ply
2,Lasse Leinonen,1973,FIN,119.35,300,305,-307.5,305,305,120,Masters 1,B,M,Single-ply
3,Markus Larsson,1974,SWE,117.86,295,300,-307.5,300,300,120,Masters 1,B,M,Single-ply
4,Jens Christalle,1970,GER,112.98,-275,275,-302.5,275,275,120,Masters 1,B,M,Single-ply
5,Gilbert Bier,1970,FRA,114.12,240,250,260,260,260,120,Masters 1,B,M,Single-ply
6,Istvan Rajos,1975,HUN,114.55,-222.5,222.5,-230,222.5,222.5,120,Masters 1,B,M,Single-ply
7,Michael Kunz,1967,AUT,117.15,220,-225,-232.5,220,220,120,Masters 1,B,M,Single-ply
DQ,Charles Duval,1972,FRA,118.41,-290,-290,-290,,,120,Masters 1,B,M,Single-ply
DQ,Conny Blomgren,1968,SWE,119.12,-300,-300,-302.5,,,120,Masters 1,B,M,Single-ply
1,Zbyněk Krejča,1974,CZE,121.16,300,305,-310,305,305,120+,Masters 1,B,M,Single-ply
2,Robert Kretzschmar,1976,GER,125.52,280,292.5,295,295,295,120+,Masters 1,B,M,Single-ply
3,Jan Pinc,1973,CZE,121.94,275,285,292.5,292.5,292.5,120+,Masters 1,B,M,Single-ply
4,Jürgen Rekittke,1969,GER,167.2,225,245,-260,245,245,120+,Masters 1,B,M,Single-ply
DQ,Örjan Dahl,1970,SWE,145.92,-275,-275,-275,,,120+,Masters 1,B,M,Single-ply
DD,Jerome Guidez,1974,FRA,148.22,-310,-320,-330,,,120+,Masters 1,B,M,Single-ply
1,Štefan Koľšovský,1961,SVK,57.85,135,140,-145,140,140,59,Masters 2,B,M,Single-ply
1,Olivier Waymel,1966,FRA,65.75,180,-200.5,-200.5,180,180,66,Masters 2,B,M,Single-ply
2,Tahvo Jauhojärvi,1961,FIN,63.83,135,-142.5,-142.5,135,135,66,Masters 2,B,M,Single-ply
3,Frank Wunderlich,1964,GER,64.94,120,-125,,120,120,66,Masters 2,B,M,Single-ply
4,Jan Van Waardenburg,1961,NED,65.47,100,-107.5,-107.5,100,100,66,Masters 2,B,M,Single-ply
1,Alphonse Cucuzzella,1966,FRA,72.66,200,-205,-207.5,200,200,74,Masters 2,B,M,Single-ply
2,Lars Carlsson,1966,SWE,73.52,162.5,-182.5,-182.5,162.5,162.5,74,Masters 2,B,M,Single-ply
3,Grzegorz Leski,1958,POL,73.87,135,-145,-145,135,135,74,Masters 2,B,M,Single-ply
DQ,Vasilii Motovilnik,1957,RUS,72.75,-192.5,-192.5,-192.5,,,74,Masters 2,B,M,Single-ply
DQ,Klaus Griesch,1959,GER,73.6,-182.5,-197.5,-200,,,74,Masters 2,B,M,Single-ply
1,Tomas Ring,1960,SWE,82.61,197.5,202.5,205,205,205,83,Masters 2,B,M,Single-ply
2,Stig Björkqvist,1960,FIN,81.98,197.5,200,202.5,202.5,202.5,83,Masters 2,B,M,Single-ply
3,Bruno Tidona,1966,FRA,81.01,-190,190,-195,190,190,83,Masters 2,B,M,Single-ply
4,Ingo Woschny,1965,GER,80.29,-160,160,170,170,170,83,Masters 2,B,M,Single-ply
DQ,Axel Gent,1963,GER,82.52,-195,-195,-195,,,83,Masters 2,B,M,Single-ply
1,Uwe Hering,1963,GER,92.25,220,222.5,227.5,227.5,227.5,93,Masters 2,B,M,Single-ply
2,Gemel Bougamdouz,1963,FRA,92.3,220,222.5,-227.5,222.5,222.5,93,Masters 2,B,M,Single-ply
3,Yves Lemagnen,1966,FRA,92.02,190,195,200,200,200,93,Masters 2,B,M,Single-ply
4,Glyn Belsher,1958,GBR,92.22,125,132.5,-140,132.5,132.5,93,Masters 2,B,M,Single-ply
DQ,Seppo Norpila,1963,FIN,91.71,-190,-190,-195,,,93,Masters 2,B,M,Single-ply
DQ,Peter Ericson,1963,SWE,91.95,-197.5,-197.5,-197.5,,,93,Masters 2,B,M,Single-ply
1,Mariusz Hadrysiak,1961,POL,105,275,-285.5,-293,275,275,105,Masters 2,B,M,Single-ply
2,Fabrice Leroy,1963,FRA,104.3,225,235,250,250,250,105,Masters 2,B,M,Single-ply
3,Mio Dabeski,1965,SWE,102,195,207.5,212.5,212.5,212.5,105,Masters 2,B,M,Single-ply
DQ,Philippe Szezepanski,1964,FRA,100.89,-225,-225,,,,105,Masters 2,B,M,Single-ply
DQ,Paul Hammond,1963,GBR,103.1,-190,-190,-210,,,105,Masters 2,B,M,Single-ply
DQ,Vladimirs Kovalskis,1958,LAT,103.7,-210,-210,-212.5,,,105,Masters 2,B,M,Single-ply
1,Mikael Jaldefors,1966,SWE,119.7,270,-275,-291,270,270,120,Masters 2,B,M,Single-ply
2,Kurt Einar Voldseth,1966,NOR,119.36,240,247.5,-252.5,247.5,247.5,120,Masters 2,B,M,Single-ply
3,Jiří Krčmář,1962,CZE,109.16,217.5,-230,230,230,230,120,Masters 2,B,M,Single-ply
DQ,Wieslaw Dominik,1965,POL,113.81,-250,-250,-260,,,120,Masters 2,B,M,Single-ply
1,Robert Blom,1966,SWE,130.38,280,290,-302.5,290,290,120+,Masters 2,B,M,Single-ply
2,Kjell Furesund,1966,NOR,134.77,-290,290,-312.5,290,290,120+,Masters 2,B,M,Single-ply
3,Georg Haug,1965,GER,150.17,250,260,-272.5,260,260,120+,Masters 2,B,M,Single-ply
4,Patrice Lefebvre,1962,FRA,136.31,255,-262.5,-272.5,255,255,120+,Masters 2,B,M,Single-ply
5,Udo Thielking,1961,GER,130.99,-215,217.5,-220,217.5,217.5,120+,Masters 2,B,M,Single-ply
DD,Ewald Enzinger,1966,AUT,142.97,-312.5,-312.5,-320,,,120+,Masters 2,B,M,Single-ply
1,Jevgenijs Vorobjovs,1953,LAT,57.43,105,110,-112.5,110,110,59,Masters 3,B,M,Single-ply
1,Claude Sitruk,1950,FRA,65.37,145,-150,-150,145,145,66,Masters 3,B,M,Single-ply
2,Markku Kemppainen,1949,FIN,64.96,107.5,110,112.5,112.5,112.5,66,Masters 3,B,M,Single-ply
3,Seppo Flink,1953,FIN,65.51,97.5,100,-102.5,100,100,66,Masters 3,B,M,Single-ply
1,Detlef Heinrich,1956,GER,73.16,160,-168,,160,160,74,Masters 3,B,M,Single-ply
2,Antero Kauranen,1948,FIN,73.22,140,,,140,140,74,Masters 3,B,M,Single-ply
3,Stanley Macrow,1949,GBR,71.1,110,115,120,120,120,74,Masters 3,B,M,Single-ply
1,Bjarne Synstad,1951,NOR,80.75,205,-215.5,-215.5,205,205,83,Masters 3,B,M,Single-ply
2,Gerhard Baumeister,1952,GER,81.76,150,157.5,162.5,162.5,162.5,83,Masters 3,B,M,Single-ply
3,Janis Lasmanis,1955,LAT,76.61,155,-160,160,160,160,83,Masters 3,B,M,Single-ply
4,Fried Zevenbergen,1954,NED,79.52,142.5,147.5,-157.5,147.5,147.5,83,Masters 3,B,M,Single-ply
5,Alain Collard,1952,FRA,81.28,140,145,-150,145,145,83,Masters 3,B,M,Single-ply
6,Voitto Ahopelto,1956,FIN,82.83,135,-145,-150,135,135,83,Masters 3,B,M,Single-ply
1,Stanislaw Mentel,1954,POL,92.21,230,-237.5,237.5,237.5,237.5,93,Masters 3,B,M,Single-ply
2,Hans-Jürgen Ehrt,1956,GER,90.6,205,-217.5,-217.5,205,205,93,Masters 3,B,M,Single-ply
3,Lutz Schuricht,1951,GER,90.19,167.5,172.5,182.5,182.5,182.5,93,Masters 3,B,M,Single-ply
4,Erick Deconinck,1956,FRA,84.54,-175,180,-182.5,180,180,93,Masters 3,B,M,Single-ply
1,Wojciech Grabowski,1951,POL,102.82,215,-236,-236,215,215,105,Masters 3,B,M,Single-ply
2,Werner Richter,1947,GER,99.9,200,205,-207.5,205,205,105,Masters 3,B,M,Single-ply
3,Helmut Reimann,1951,GER,99.83,-200,-200,200,200,200,105,Masters 3,B,M,Single-ply
1,Hans-Peter Falk,1951,GER,115.92,197.5,205,207.5,207.5,207.5,120,Masters 3,B,M,Single-ply
2,Paul Den Ouden,1954,NED,105.05,190,200,205,205,205,120,Masters 3,B,M,Single-ply
3,Harri Tirronen,1953,FIN,105.95,-192.5,192.5,-207.5,192.5,192.5,120,Masters 3,B,M,Single-ply
4,Allan Fuglsang,1950,DEN,109.52,185,-192.5,-195,185,185,120,Masters 3,B,M,Single-ply
5,Robert Øren,1950,NOR,107.43,170,177.5,-185,177.5,177.5,120,Masters 3,B,M,Single-ply
6,Erik Wallin Sven,1951,SWE,114.35,150,157.5,-165,157.5,157.5,120,Masters 3,B,M,Single-ply
1,Eberhard Schwanke,1953,GER,142.19,220,240,243,243,243,120+,Masters 3,B,M,Single-ply
DQ,Dainis Reinholds,1951,LAT,124.45,-250,-250,-252.5,,,120+,Masters 3,B,M,Single-ply
1,Pierre Gallart,1944,FRA,58.13,100,-110,,100,100,59,Masters 4,B,M,Single-ply
2,Ludwig Werner,1938,GER,58.88,75,80,-85,80,80,59,Masters 4,B,M,Single-ply
1,Boleslaw Maka,1942,POL,73.5,145,147.5,150,150,150,74,Masters 4,B,M,Single-ply
2,Michel Dernoncourt,1946,FRA,73.17,142.5,-145,147.5,147.5,147.5,74,Masters 4,B,M,Single-ply
1,Alex Lee,1944,GBR,79.9,132.5,137.5,142.5,142.5,142.5,83,Masters 4,B,M,Single-ply
2,Horst Lorenz,1940,GER,77.73,127.5,132.5,-140,132.5,132.5,83,Masters 4,B,M,Single-ply
3,Verner Nielsen,1940,DEN,81.56,85,90,95,95,95,83,Masters 4,B,M,Single-ply
1,Seppo Komppa,1945,FIN,91.83,150,155,157.5,157.5,157.5,93,Masters 4,B,M,Single-ply
2,Daniel Reybrouck,1942,BEL,84.61,130,135,-137.5,135,135,93,Masters 4,B,M,Single-ply
3,Kaziemierz Forys,1945,GER,91.43,130,-135,135,135,135,93,Masters 4,B,M,Single-ply
4,Adriaan Fabrie,1946,NED,92.34,125,-132.5,-132.5,125,125,93,Masters 4,B,M,Single-ply
5,Mike Edwards,1946,GBR,89.93,-122.5,122.5,-130,122.5,122.5,93,Masters 4,B,M,Single-ply
1,Lothar Hildebrandt,1943,GER,100.21,-140,140,150,150,150,105,Masters 4,B,M,Single-ply
2,Adolf Rohrbacher,1938,AUT,93.67,110,-115,-115,110,110,105,Masters 4,B,M,Single-ply
1,Niilo Maliniemi,1946,SWE,116.99,170,220,232.5,232.5,232.5,120,Masters 4,B,M,Single-ply
1,Nathalie Feraud,1967,FRA,47,80,85,-90,85,85,47,Masters 1,B,F,Single-ply
1,Monika Gavorníková,1974,SVK,51.59,92.5,97.5,102.5,102.5,102.5,52,Masters 1,B,F,Single-ply
2,Beatrice Costa-Russic,1969,FRA,51.1,70,-75,-77.5,70,70,52,Masters 1,B,F,Single-ply
1,Jadwiga Radwanska,1975,POL,56.3,100,-102.5,-105,100,100,57,Masters 1,B,F,Single-ply
2,Véronique Descours,1971,FRA,56.56,87.5,92.5,95,95,95,57,Masters 1,B,F,Single-ply
3,Annelie Izindre,1972,SWE,56.27,-87.5,87.5,-95,87.5,87.5,57,Masters 1,B,F,Single-ply
1,Isabelle Iliev,1967,FRA,61.6,-127.5,127.5,-135,127.5,127.5,63,Masters 1,B,F,Single-ply
2,Christelle Maniez,1975,FRA,61.83,100,107.5,110,110,110,63,Masters 1,B,F,Single-ply
3,Beverley Rodgers,1972,GBR,62.8,90,95,-112.5,95,95,63,Masters 1,B,F,Single-ply
1,Nicole Boersch,1976,GER,69.4,120,125,130,130,130,72,Masters 1,B,F,Single-ply
2,Satu Luoto,1969,FIN,66.24,102.5,-110,-110,102.5,102.5,72,Masters 1,B,F,Single-ply
3,Wendie Kirkland,1972,GBR,69.96,90,97.5,102.5,102.5,102.5,72,Masters 1,B,F,Single-ply
4,Hennie Loo Van'T,1967,NED,70.52,102.5,-110,-110,102.5,102.5,72,Masters 1,B,F,Single-ply
DQ,Claudia Narovnigg,1972,AUT,68.67,-135,-135,-135,,,72,Masters 1,B,F,Single-ply
1,Eva Engskar,1973,NOR,83.6,155,162.5,170,170,170,84,Masters 1,B,F,Single-ply
2,Frieda Holzer,1968,GER,80.11,-125,127.5,130,130,130,84,Masters 1,B,F,Single-ply
3,Piia Valkonen,1973,FIN,83.53,-120,120,-125,120,120,84,Masters 1,B,F,Single-ply
4,Stephanie Bastien,1974,FRA,81.61,115,-122.5,-125,115,115,84,Masters 1,B,F,Single-ply
5,Angelique Dalia,1972,FRA,78.7,102.5,107.5,-120,107.5,107.5,84,Masters 1,B,F,Single-ply
6,Alena Krčmářová,1975,CZE,77.26,80,85,-100,85,85,84,Masters 1,B,F,Single-ply
1,Katariina Nokua,1973,FIN,108.38,135,140,150,150,150,84+,Masters 1,B,F,Single-ply
2,Dorota Szczepanik,1969,POL,84.12,100,135,147.5,147.5,147.5,84+,Masters 1,B,F,Single-ply
1,Marion Friedrich,1965,GER,46.55,90,-95,95,95,95,47,Masters 2,B,F,Single-ply
1,Brigitte Landon,1961,FRA,48.65,67.5,70,72.5,72.5,72.5,52,Masters 2,B,F,Single-ply
2,Eira Pajuharju,1964,FIN,51.82,65,70,-75,70,70,52,Masters 2,B,F,Single-ply
1,Gabriela Hirner,1965,GER,55.34,105,110,112.5,112.5,112.5,57,Masters 2,B,F,Single-ply
2,Irina Bekhtereva,1959,RUS,53.73,77.5,80,82.5,82.5,82.5,57,Masters 2,B,F,Single-ply
3,Pia Kring,1957,GER,55.81,72.5,75,-82.5,75,75,57,Masters 2,B,F,Single-ply
1,Tarja Uppala,1965,FIN,62.1,95,-97.5,100,100,100,63,Masters 2,B,F,Single-ply
2,Patricia Maciejewski,1961,FRA,62.33,92.5,97.5,100,100,100,63,Masters 2,B,F,Single-ply
3,Marlies Winkel,1957,GER,61.56,-90,90,-95,90,90,63,Masters 2,B,F,Single-ply
4,Sophie Angenot,1966,FRA,60.78,-82.5,82.5,-85,82.5,82.5,63,Masters 2,B,F,Single-ply
1,Iris Kunkel,1964,GER,68.64,122.5,-125,-125,122.5,122.5,72,Masters 2,B,F,Single-ply
2,Andrea Lange,1965,GER,68.93,107.5,-125,-125,107.5,107.5,72,Masters 2,B,F,Single-ply
3,Aline Leroy,1962,FRA,69.81,85,-92.5,-95,85,85,72,Masters 2,B,F,Single-ply
1,Åsa Halvarsson,1961,SWE,77.96,97.5,105,110,110,110,84,Masters 2,B,F,Single-ply
1,Leila Duhem,1963,FRA,101.26,145,-157.5,-160,145,145,84+,Masters 2,B,F,Single-ply
2,Sylvia Wunderlich,1965,GER,88.33,105,110,112.5,112.5,112.5,84+,Masters 2,B,F,Single-ply
1,Pirjo Kemppainen,1951,FIN,46.61,30,32.5,-37.5,32.5,32.5,47,Masters 3,B,F,Single-ply
1,Aira Knutars,1954,FIN,51.66,75,81,81.5,81.5,81.5,52,Masters 3,B,F,Single-ply
1,Evelyne Herbin,1956,FRA,62.92,85,90,-93,90,90,63,Masters 3,B,F,Single-ply
2,Anita Thimm,1950,GER,60.13,72.5,-75,-75,72.5,72.5,63,Masters 3,B,F,Single-ply
3,Marianne Lankau,1953,GER,58.07,55,-57.5,-57.5,55,55,63,Masters 3,B,F,Single-ply
1,Marie Christine Liege,1955,FRA,68.43,70,75,80,80,80,72,Masters 3,B,F,Single-ply
2,Monika Giersberg,1953,GER,64.32,70,72.5,-75,72.5,72.5,72,Masters 3,B,F,Single-ply
1,Hana Takáčová,1954,CZE,79.19,110,117.5,125,125,125,84,Masters 3,B,F,Single-ply
2,Eva Speth,1954,GER,83.18,100,102.5,,102.5,102.5,84,Masters 3,B,F,Single-ply
3,Anke Beninga,1954,GER,74.5,77.5,80,-85,80,80,84,Masters 3,B,F,Single-ply
1,Françoise Heligon,1943,FRA,51.33,52.5,55,57.5,57.5,57.5,52,Masters 4,B,F,Single-ply
1,Adina Hyková,1943,CZE,60.66,70,-78.5,-78.5,70,70,63,Masters 4,B,F,Single-ply
2,Ursula Nothnagel,1936,GER,61.57,50,52.5,55,55,55,63,Masters 4,B,F,Single-ply
